// Jest Snapshot v1, https://goo.gl/fbAQLP

exports[`OpeningHours component renders with all empty days 1`] = `
<div
  className="sc-fubCfw gZoUCo"
>
  <div
    className="sc-pFZIQ kMzZRB"
  >
    <svg
      aria-hidden="true"
      className="StyledIconBase-ea9ulj-0 cKCFNq sc-bdfBwQ dprNfi"
      fill="currentColor"
      focusable="false"
      viewBox="0 0 16 16"
      xmlns="http://www.w3.org/2000/svg"
    >
      <path
        d="M8 3.5a.5.5 0 00-1 0V9a.5.5 0 00.252.434l3.5 2a.5.5 0 00.496-.868L8 8.71V3.5z"
      />
      <path
        d="M8 16A8 8 0 108 0a8 8 0 000 16zm7-8A7 7 0 111 8a7 7 0 0114 0z"
      />
    </svg>
    Opening Hours
  </div>
  <div
    className="sc-iBPRYJ lbiOGZ"
  >
    <div
      className="sc-hKgILt kWBmqq"
    >
      <div
        className="sc-gsTCUz erTygE"
      >
        <div
          className="sc-gKsewC jhmFmQ"
        >
          monday
        </div>
      </div>
      <div
        className="sc-gsTCUz kqvQoa"
      >
        <div
          className="sc-dlfnbm iZndbx"
        >
          Closed
        </div>
      </div>
    </div>
    <div
      className="sc-hKgILt kWBmqq"
    >
      <div
        className="sc-gsTCUz erTygE"
      >
        <div
          className="sc-gKsewC jhmFmQ"
        >
          tuesday
        </div>
      </div>
      <div
        className="sc-gsTCUz kqvQoa"
      >
        <div
          className="sc-dlfnbm iZndbx"
        >
          Closed
        </div>
      </div>
    </div>
    <div
      className="sc-hKgILt kWBmqq"
    >
      <div
        className="sc-gsTCUz erTygE"
      >
        <div
          className="sc-gKsewC jhmFmQ"
        >
          wednesday
        </div>
      </div>
      <div
        className="sc-gsTCUz kqvQoa"
      >
        <div
          className="sc-dlfnbm iZndbx"
        >
          Closed
        </div>
      </div>
    </div>
    <div
      className="sc-hKgILt kWBmqq"
    >
      <div
        className="sc-gsTCUz erTygE"
      >
        <div
          className="sc-gKsewC jhmFmQ"
        >
          thursday
        </div>
      </div>
      <div
        className="sc-gsTCUz kqvQoa"
      >
        <div
          className="sc-dlfnbm iZndbx"
        >
          Closed
        </div>
      </div>
    </div>
    <div
      className="sc-hKgILt kWBmqq"
    >
      <div
        className="sc-gsTCUz erTygE"
      >
        <div
          className="sc-gKsewC jhmFmQ"
        >
          friday
        </div>
      </div>
      <div
        className="sc-gsTCUz kqvQoa"
      >
        <div
          className="sc-dlfnbm iZndbx"
        >
          Closed
        </div>
      </div>
    </div>
    <div
      className="sc-hKgILt kWBmqq"
    >
      <div
        className="sc-gsTCUz erTygE"
      >
        <div
          className="sc-gKsewC jhmFmQ"
        >
          saturday
        </div>
      </div>
      <div
        className="sc-gsTCUz kqvQoa"
      >
        <div
          className="sc-dlfnbm iZndbx"
        >
          Closed
        </div>
      </div>
    </div>
    <div
      className="sc-hKgILt kWBmqq"
    >
      <div
        className="sc-gsTCUz erTygE"
      >
        <div
          className="sc-gKsewC jhmFmQ"
        >
          sunday
        </div>
        <div
          className="sc-jSgupP bWjiYS"
        >
          Today
        </div>
      </div>
      <div
        className="sc-gsTCUz kqvQoa"
      >
        <div
          className="sc-dlfnbm iZndbx"
        >
          Closed
        </div>
      </div>
    </div>
  </div>
</div>
`;

exports[`OpeningHours component renders with most of edge cases 1`] = `
<div
  className="sc-fubCfw gZoUCo"
>
  <div
    className="sc-pFZIQ kMzZRB"
  >
    <svg
      aria-hidden="true"
      className="StyledIconBase-ea9ulj-0 cKCFNq sc-bdfBwQ dprNfi"
      fill="currentColor"
      focusable="false"
      viewBox="0 0 16 16"
      xmlns="http://www.w3.org/2000/svg"
    >
      <path
        d="M8 3.5a.5.5 0 00-1 0V9a.5.5 0 00.252.434l3.5 2a.5.5 0 00.496-.868L8 8.71V3.5z"
      />
      <path
        d="M8 16A8 8 0 108 0a8 8 0 000 16zm7-8A7 7 0 111 8a7 7 0 0114 0z"
      />
    </svg>
    Opening Hours
  </div>
  <div
    className="sc-iBPRYJ lbiOGZ"
  >
    <div
      className="sc-hKgILt kWBmqq"
    >
      <div
        className="sc-gsTCUz erTygE"
      >
        <div
          className="sc-gKsewC jhmFmQ"
        >
          monday
        </div>
      </div>
      <div
        className="sc-gsTCUz kqvQoa"
      >
        <div
          className="sc-dlfnbm iZndbx"
        >
          Closed
        </div>
      </div>
    </div>
    <div
      className="sc-hKgILt kWBmqq"
    >
      <div
        className="sc-gsTCUz erTygE"
      >
        <div
          className="sc-gKsewC jhmFmQ"
        >
          tuesday
        </div>
      </div>
      <div
        className="sc-gsTCUz kqvQoa"
      >
        <div
          className="sc-eCssSg cwNcOF"
        >
          10 AM - 6 PM
        </div>
      </div>
    </div>
    <div
      className="sc-hKgILt kWBmqq"
    >
      <div
        className="sc-gsTCUz erTygE"
      >
        <div
          className="sc-gKsewC jhmFmQ"
        >
          wednesday
        </div>
      </div>
      <div
        className="sc-gsTCUz kqvQoa"
      >
        <div
          className="sc-dlfnbm iZndbx"
        >
          Closed
        </div>
      </div>
    </div>
    <div
      className="sc-hKgILt kWBmqq"
    >
      <div
        className="sc-gsTCUz erTygE"
      >
        <div
          className="sc-gKsewC jhmFmQ"
        >
          thursday
        </div>
      </div>
      <div
        className="sc-gsTCUz kqvQoa"
      >
        <div
          className="sc-eCssSg cwNcOF"
        >
          10 AM - 6 PM
        </div>
      </div>
    </div>
    <div
      className="sc-hKgILt kWBmqq"
    >
      <div
        className="sc-gsTCUz erTygE"
      >
        <div
          className="sc-gKsewC jhmFmQ"
        >
          friday
        </div>
      </div>
      <div
        className="sc-gsTCUz kqvQoa"
      >
        <div
          className="sc-eCssSg cwNcOF"
        >
          10 AM - 1 AM
        </div>
      </div>
    </div>
    <div
      className="sc-hKgILt kWBmqq"
    >
      <div
        className="sc-gsTCUz erTygE"
      >
        <div
          className="sc-gKsewC jhmFmQ"
        >
          saturday
        </div>
      </div>
      <div
        className="sc-gsTCUz kqvQoa"
      >
        <div
          className="sc-eCssSg cwNcOF"
        >
          10 AM - 1 AM
        </div>
      </div>
    </div>
    <div
      className="sc-hKgILt kWBmqq"
    >
      <div
        className="sc-gsTCUz erTygE"
      >
        <div
          className="sc-gKsewC jhmFmQ"
        >
          sunday
        </div>
        <div
          className="sc-jSgupP bWjiYS"
        >
          Today
        </div>
      </div>
      <div
        className="sc-gsTCUz kqvQoa"
      >
        <div
          className="sc-eCssSg cwNcOF"
        >
          10 AM - 11 AM
        </div>
        <div
          className="sc-eCssSg cwNcOF"
        >
          12 PM - 9 PM
        </div>
      </div>
    </div>
  </div>
</div>
`;
